Adding LIBD modules
Loading git
Loading LIBD module for git-status-size/github
Loading LIBD module for git-lfs/2.8.0
Loading LIBD module for rmate/1.5.9
Loading LIBD module for ruby/2.6.4p104
Loading conda_R/4.1.x
**** Job starts ****
Mon Oct  2 10:40:50 EDT 2023
**** JHPCE info ****
User: mtippani
Job id: 3748916
Job name: runRCTD
Hostname: compute-126.cm.cluster
Task id: 4
Unloading conda_R/4.1.x
Loading conda_R/devel

The following have been reloaded with a version change:
  1) conda_R/4.1.x => conda_R/devel

Warning in .make_numeric_version(x, strict, .standard_regexps()$valid_numeric_version) :
  invalid non-character version specification 'x' (type: double)
Warning message:
replacing previous import ‘utils::findMatches’ by ‘S4Vectors::findMatches’ when loading ‘AnnotationDbi’ 

Attaching package: ‘gridExtra’

The following object is masked from ‘package:Biobase’:

    combine

The following object is masked from ‘package:BiocGenerics’:

    combine

The following object is masked from ‘package:dplyr’:

    combine

Loading required package: viridisLite
fitBulk: decomposing bulk
chooseSigma: using initial Q_mat with sigma =  1
Likelihood value: 1850174.08909405
Sigma value:  0.84
Likelihood value: 1822272.31915196
Sigma value:  0.69
Likelihood value: 1801555.15685415
Sigma value:  0.61
Likelihood value: 1793442.76902967
Sigma value:  0.53
Likelihood value: 1787940.67716616
Sigma value:  0.46
Likelihood value: 1785701.22983178
Sigma value:  0.44
Likelihood value: 1785566.77318748
Sigma value:  0.44
[1] "Examining multi mode all weights results"
[1] "Astro"
[1] "CA1_ProS"
[1] "CA2-4"
[1] "Cajal"
[1] "Choroid"
[1] "Ependy"
[1] "GABA.CGE"
[1] "GABA.LAMP5"
[1] "GABA.MGE"
[1] "GC"
[1] "L2_3.Prs.Ent"
[1] "L2_3.PrS.PaS"
[1] "L5"
[1] "L6_6b"
[1] "Micro_Macro_T"
[1] "Oligo"
[1] "OPC"
[1] "Sub.1"
[1] "Sub.2"
[1] "Thal"
[1] "Vascular"
[1] "Examining multi mode sub weights results"
fitBulk: decomposing bulk
chooseSigma: using initial Q_mat with sigma =  1
Likelihood value: 1844790.61717522
Sigma value:  0.84
Likelihood value: 1816725.95389884
Sigma value:  0.69
Likelihood value: 1795723.89092967
Sigma value:  0.61
Likelihood value: 1787390.39526595
Sigma value:  0.53
Likelihood value: 1781607.56863305
Sigma value:  0.46
Likelihood value: 1779067.9765159
Sigma value:  0.44
Likelihood value: 1778838.16045268
Sigma value:  0.43
Likelihood value: 1778812.55818899
Sigma value:  0.43
**** Job ends ****
Mon Oct  2 12:25:12 EDT 2023
