Adding LIBD modules
Loading git
Loading LIBD module for git-status-size/github
Loading LIBD module for git-lfs/2.8.0
Loading LIBD module for rmate/1.5.9
Loading LIBD module for ruby/2.6.4p104
Loading conda_R/4.1.x
**** Job starts ****
Thu Sep 21 10:25:04 EDT 2023
**** JHPCE info ****
User: mtippani
Job id: 3729413
Job name: runRCTD
Hostname: compute-126.cm.cluster
Task id: 30
Unloading conda_R/4.1.x
Loading conda_R/devel

The following have been reloaded with a version change:
  1) conda_R/4.1.x => conda_R/devel

Warning in .make_numeric_version(x, strict, .standard_regexps()$valid_numeric_version) :
  invalid non-character version specification 'x' (type: double)
Warning message:
replacing previous import ‘utils::findMatches’ by ‘S4Vectors::findMatches’ when loading ‘AnnotationDbi’ 

Attaching package: ‘gridExtra’

The following object is masked from ‘package:Biobase’:

    combine

The following object is masked from ‘package:BiocGenerics’:

    combine

The following object is masked from ‘package:dplyr’:

    combine

Loading required package: viridisLite
Error in h(simpleError(msg, call)) : 
  error in evaluating the argument 'x' in selecting a method for function 'colData': object 'sce' not found
Calls: colData -> .handleSimpleError -> h
Execution halted
**** Job ends ****
Thu Sep 21 10:25:23 EDT 2023
Adding LIBD modules
Loading git
Loading LIBD module for git-status-size/github
Loading LIBD module for git-lfs/2.8.0
Loading LIBD module for rmate/1.5.9
Loading LIBD module for ruby/2.6.4p104
Loading conda_R/4.1.x
**** Job starts ****
Thu Sep 21 14:52:49 EDT 2023
**** JHPCE info ****
User: mtippani
Job id: 3736699
Job name: runRCTD
Hostname: compute-126.cm.cluster
Task id: 30
Unloading conda_R/4.1.x
Loading conda_R/devel

The following have been reloaded with a version change:
  1) conda_R/4.1.x => conda_R/devel

Warning in .make_numeric_version(x, strict, .standard_regexps()$valid_numeric_version) :
  invalid non-character version specification 'x' (type: double)
Warning message:
replacing previous import ‘utils::findMatches’ by ‘S4Vectors::findMatches’ when loading ‘AnnotationDbi’ 

Attaching package: ‘gridExtra’

The following object is masked from ‘package:Biobase’:

    combine

The following object is masked from ‘package:BiocGenerics’:

    combine

The following object is masked from ‘package:dplyr’:

    combine

Loading required package: viridisLite
Error in h(simpleError(msg, call)) : 
  error in evaluating the argument 'x' in selecting a method for function 'colData': object 'sce' not found
Calls: colData -> .handleSimpleError -> h
Execution halted
**** Job ends ****
Thu Sep 21 14:53:14 EDT 2023
Adding LIBD modules
Loading git
Loading LIBD module for git-status-size/github
Loading LIBD module for git-lfs/2.8.0
Loading LIBD module for rmate/1.5.9
Loading LIBD module for ruby/2.6.4p104
Loading conda_R/4.1.x
**** Job starts ****
Fri Sep 22 10:06:18 EDT 2023
**** JHPCE info ****
User: mtippani
Job id: 3736893
Job name: runRCTD
Hostname: compute-126.cm.cluster
Task id: 30
Unloading conda_R/4.1.x
Loading conda_R/devel

The following have been reloaded with a version change:
  1) conda_R/4.1.x => conda_R/devel

Warning in .make_numeric_version(x, strict, .standard_regexps()$valid_numeric_version) :
  invalid non-character version specification 'x' (type: double)
Warning message:
replacing previous import ‘utils::findMatches’ by ‘S4Vectors::findMatches’ when loading ‘AnnotationDbi’ 

Attaching package: ‘gridExtra’

The following object is masked from ‘package:Biobase’:

    combine

The following object is masked from ‘package:BiocGenerics’:

    combine

The following object is masked from ‘package:dplyr’:

    combine

Loading required package: viridisLite
fitBulk: decomposing bulk
chooseSigma: using initial Q_mat with sigma =  1
Likelihood value: 1384989.43124127
Sigma value:  0.84
Likelihood value: 1365579.4481802
Sigma value:  0.69
Likelihood value: 1350776.89272046
Sigma value:  0.61
Likelihood value: 1344577.06902225
Sigma value:  0.53
Likelihood value: 1339778.03988486
Sigma value:  0.45
Likelihood value: 1336565.63857463
Sigma value:  0.38
Likelihood value: 1335208.74181524
Sigma value:  0.36
Likelihood value: 1335089.33259187
Sigma value:  0.36
[1] "Examining multi mode all weights results"
[1] "Astro"
[1] "CA1_ProS"
[1] "CA2-4"
[1] "Cajal"
[1] "Choroid"
[1] "Ependy"
[1] "GABA.CGE"
[1] "GABA.LAMP5"
[1] "GABA.MGE"
[1] "GC"
[1] "L2_3.Prs.Ent"
[1] "L2_3.PrS.PaS"
[1] "L5"
[1] "L6_6b"
[1] "Micro_Macro_T"
[1] "Oligo"
[1] "OPC"
[1] "Sub.1"
[1] "Sub.2"
[1] "Thal"
[1] "Vascular"
[1] "Examining multi mode sub weights results"
fitBulk: decomposing bulk
chooseSigma: using initial Q_mat with sigma =  1
Likelihood value: 1375924.77718918
Sigma value:  0.84
Likelihood value: 1356946.4884844
Sigma value:  0.69
Likelihood value: 1342499.0797545
Sigma value:  0.61
Likelihood value: 1336453.02206237
Sigma value:  0.53
Likelihood value: 1331774.27495983
Sigma value:  0.45
Likelihood value: 1328644.71390801
Sigma value:  0.38
Likelihood value: 1327326.17534226
Sigma value:  0.36
Likelihood value: 1327210.33985623
Sigma value:  0.35
**** Job ends ****
Fri Sep 22 11:47:08 EDT 2023
