Adding LIBD modules
Loading git
Loading LIBD module for git-status-size/github
Loading LIBD module for git-lfs/2.8.0
Loading LIBD module for rmate/1.5.9
Loading LIBD module for ruby/2.6.4p104
Loading conda_R/4.1.x
**** Job starts ****
Thu Sep 21 10:22:25 EDT 2023
**** JHPCE info ****
User: mtippani
Job id: 3729413
Job name: runRCTD
Hostname: compute-126.cm.cluster
Task id: 21
Unloading conda_R/4.1.x
Loading conda_R/devel

The following have been reloaded with a version change:
  1) conda_R/4.1.x => conda_R/devel

Warning in .make_numeric_version(x, strict, .standard_regexps()$valid_numeric_version) :
  invalid non-character version specification 'x' (type: double)
Warning message:
replacing previous import ‘utils::findMatches’ by ‘S4Vectors::findMatches’ when loading ‘AnnotationDbi’ 

Attaching package: ‘gridExtra’

The following object is masked from ‘package:Biobase’:

    combine

The following object is masked from ‘package:BiocGenerics’:

    combine

The following object is masked from ‘package:dplyr’:

    combine

Loading required package: viridisLite
Error in h(simpleError(msg, call)) : 
  error in evaluating the argument 'x' in selecting a method for function 'colData': object 'sce' not found
Calls: colData -> .handleSimpleError -> h
Execution halted
**** Job ends ****
Thu Sep 21 10:22:44 EDT 2023
Adding LIBD modules
Loading git
Loading LIBD module for git-status-size/github
Loading LIBD module for git-lfs/2.8.0
Loading LIBD module for rmate/1.5.9
Loading LIBD module for ruby/2.6.4p104
Loading conda_R/4.1.x
**** Job starts ****
Thu Sep 21 14:50:58 EDT 2023
**** JHPCE info ****
User: mtippani
Job id: 3736699
Job name: runRCTD
Hostname: compute-126.cm.cluster
Task id: 21
Unloading conda_R/4.1.x
Loading conda_R/devel

The following have been reloaded with a version change:
  1) conda_R/4.1.x => conda_R/devel

Warning in .make_numeric_version(x, strict, .standard_regexps()$valid_numeric_version) :
  invalid non-character version specification 'x' (type: double)
Warning message:
replacing previous import ‘utils::findMatches’ by ‘S4Vectors::findMatches’ when loading ‘AnnotationDbi’ 

Attaching package: ‘gridExtra’

The following object is masked from ‘package:Biobase’:

    combine

The following object is masked from ‘package:BiocGenerics’:

    combine

The following object is masked from ‘package:dplyr’:

    combine

Loading required package: viridisLite
Error in h(simpleError(msg, call)) : 
  error in evaluating the argument 'x' in selecting a method for function 'colData': object 'sce' not found
Calls: colData -> .handleSimpleError -> h
Execution halted
**** Job ends ****
Thu Sep 21 14:51:16 EDT 2023
Adding LIBD modules
Loading git
Loading LIBD module for git-status-size/github
Loading LIBD module for git-lfs/2.8.0
Loading LIBD module for rmate/1.5.9
Loading LIBD module for ruby/2.6.4p104
Loading conda_R/4.1.x
**** Job starts ****
Fri Sep 22 06:55:43 EDT 2023
**** JHPCE info ****
User: mtippani
Job id: 3736893
Job name: runRCTD
Hostname: compute-126.cm.cluster
Task id: 21
Unloading conda_R/4.1.x
Loading conda_R/devel

The following have been reloaded with a version change:
  1) conda_R/4.1.x => conda_R/devel

Warning in .make_numeric_version(x, strict, .standard_regexps()$valid_numeric_version) :
  invalid non-character version specification 'x' (type: double)
Warning message:
replacing previous import ‘utils::findMatches’ by ‘S4Vectors::findMatches’ when loading ‘AnnotationDbi’ 

Attaching package: ‘gridExtra’

The following object is masked from ‘package:Biobase’:

    combine

The following object is masked from ‘package:BiocGenerics’:

    combine

The following object is masked from ‘package:dplyr’:

    combine

Loading required package: viridisLite
fitBulk: decomposing bulk
chooseSigma: using initial Q_mat with sigma =  1
Likelihood value: 1034110.73761725
Sigma value:  0.84
Likelihood value: 1019788.28260406
Sigma value:  0.69
Likelihood value: 1008901.24456139
Sigma value:  0.61
Likelihood value: 1004384.93028818
Sigma value:  0.53
Likelihood value: 1000959.01215034
Sigma value:  0.45
Likelihood value: 998796.247593643
Sigma value:  0.4
Likelihood value: 998168.796669646
Sigma value:  0.39
Likelihood value: 998115.193972566
Sigma value:  0.37
[1] "Examining multi mode all weights results"
[1] "Astro"
[1] "CA1_ProS"
[1] "CA2-4"
[1] "Cajal"
[1] "Choroid"
[1] "Ependy"
[1] "GABA.CGE"
[1] "GABA.LAMP5"
[1] "GABA.MGE"
[1] "GC"
[1] "L2_3.Prs.Ent"
[1] "L2_3.PrS.PaS"
[1] "L5"
[1] "L6_6b"
[1] "Micro_Macro_T"
[1] "Oligo"
[1] "OPC"
[1] "Sub.1"
[1] "Sub.2"
[1] "Thal"
[1] "Vascular"
[1] "Examining multi mode sub weights results"
fitBulk: decomposing bulk
chooseSigma: using initial Q_mat with sigma =  1
Likelihood value: 1053437.49477743
Sigma value:  0.84
Likelihood value: 1038823.75223018
Sigma value:  0.69
Likelihood value: 1027737.01476638
Sigma value:  0.61
Likelihood value: 1023156.37391238
Sigma value:  0.53
Likelihood value: 1019706.67941253
Sigma value:  0.45
Likelihood value: 1017570.15613039
Sigma value:  0.4
Likelihood value: 1016987.41967525
Sigma value:  0.39
Likelihood value: 1016945.56194765
Sigma value:  0.38
**** Job ends ****
Fri Sep 22 08:46:58 EDT 2023
